{
	"telegram_session":{
		"api_id":"1644381",
		"api_hash":"cd1365e322df95443da202f03d49c824",
		"number":"+5585991365507",
		"bot_token":"933199821:AAEkLcxSIaLSj3PooOR1fUed3FqjuOIMDhU",
		"proxy":""
	},
	"project_configuration":{
		"groups_csv_path":"data/channels.csv",
		"groups_json_path":"data/channels.json",
		"users_csv_path":"data/users.csv",
		"users_json_path":"data/users.json",
		"database_sqlite_path":"data/telegram.db",
		"database_mongodb_path":"",
		"api_url":"http://localhost:8080"
	}
}
